<?xml version="1.0" encoding="UTF-8" standalone="no"?>
<!-- Created with Inkscape (http://www.inkscape.org/) -->

<svg
   width="3840"
   height="2160"
   viewBox="0 0 1016 571.50002"
   version="1.1"
   id="svg5"
   xml:space="preserve"
   xmlns:xlink="http://www.w3.org/1999/xlink"
   xmlns="http://www.w3.org/2000/svg"
   xmlns:svg="http://www.w3.org/2000/svg"><defs
     id="defs14"><linearGradient
       id="linearGradient2633"><stop
         style="stop-color:#0f2751;stop-opacity:1"
         offset="0"
         id="stop2629" /><stop
         style="stop-color:#000000;stop-opacity:1;"
         offset="1"
         id="stop2631" /></linearGradient><linearGradient
       id="linearGradient1152"><stop
         style="stop-color:#23bac2;stop-opacity:1"
         offset="0"
         id="stop1148" /><stop
         style="stop-color:#1e488e;stop-opacity:1"
         offset="1"
         id="stop1150" /></linearGradient><filter
       style="color-interpolation-filters:sRGB"
       id="filter851"
       x="-0.22944534"
       y="-0.43321365"
       width="1.4588907"
       height="1.8664273"><feGaussianBlur
         stdDeviation="44.64577"
         id="feGaussianBlur853" /></filter><clipPath
       clipPathUnits="userSpaceOnUse"
       id="clipPath1121"><rect
         style="opacity:0.5;fill:#000000;stroke-width:2.58724;stroke-linecap:round;stroke-linejoin:round;stroke-miterlimit:16.8"
         id="rect1123"
         width="496.74924"
         height="279.42145"
         x="2743.9456"
         y="-933.62537" /></clipPath><radialGradient
       xlink:href="#linearGradient1152"
       id="radialGradient1154"
       cx="508"
       cy="285.75"
       fx="508"
       fy="285.75"
       r="508"
       gradientTransform="matrix(0,1,-1.000821,0,793.98461,-222.25)"
       gradientUnits="userSpaceOnUse" /><linearGradient
       xlink:href="#linearGradient2633"
       id="linearGradient2635"
       x1="2824.2292"
       y1="-706.69855"
       x2="3691.9299"
       y2="-1207.6658"
       gradientUnits="userSpaceOnUse" /><filter
       style="color-interpolation-filters:sRGB;"
       id="filter3159"
       x="-0.021617428"
       y="-0.051387075"
       width="1.0432349"
       height="1.1384596"><feFlood
         flood-opacity="0.192157"
         flood-color="rgb(0,0,0)"
         result="flood"
         id="feFlood3149" /><feComposite
         in="flood"
         in2="SourceGraphic"
         operator="out"
         result="composite1"
         id="feComposite3151" /><feGaussianBlur
         in="composite1"
         stdDeviation="6"
         result="blur"
         id="feGaussianBlur3153" /><feOffset
         dx="0"
         dy="10"
         result="offset"
         id="feOffset3155" /><feComposite
         in="offset"
         in2="SourceGraphic"
         operator="atop"
         result="composite2"
         id="feComposite3157" /></filter></defs><g
     id="layer1"><rect
       style="opacity:1;fill:url(#radialGradient1154);fill-opacity:1;stroke:none;stroke-width:7.99042;stroke-linecap:round;stroke-linejoin:round;stroke-miterlimit:4;stroke-dasharray:none"
       id="rect66918"
       width="1016"
       height="571.50012"
       x="-1.10371e-13"
       y="-6.1035156e-05" /><g
       id="g70280"><use
         x="0"
         y="0"
         xlink:href="#g65680"
         id="use65686"
         transform="matrix(1,0,0,-1,-4.1944751e-5,571.5)"
         width="100%"
         height="100%"
         style="stroke-width:0.983718" /><g
         id="g65680"
         clip-path="url(#clipPath1121)"
         transform="matrix(1.0226488,0,0,1.0226488,-2298.0926,954.77086)"
         style="stroke-width:0.983718"><path
           id="path2727"
           style="fill:url(#linearGradient2635);fill-opacity:1;stroke-width:0.260208;filter:url(#filter3159)"
           d="m 3308.7111,-933.79017 v 139.71317 140.51254 h -28.1055 -28.1061 l -3.5742,-1.7879 c -5.4053,-2.70355 -10.599,-4.91566 -25.406,-10.82255 -17.9025,-7.14161 -25.2786,-10.51758 -32.429,-14.84154 -2.2887,-1.38394 -3.1842,-1.98062 -7.0191,-4.67764 -3.4886,-2.45365 -10.7221,-9.2956 -12.587,-11.90557 -0.4473,-0.62606 -1.1962,-1.54203 -1.6639,-2.03541 -0.7709,-0.81325 -1.4754,-2.07928 -2.8171,-5.06034 -0.2576,-0.57247 -0.5522,-1.10018 -0.6545,-1.17245 -0.3334,-0.23554 -3.0078,-6.30555 -4.0013,-9.0819 -1.0485,-2.93065 -1.9614,-7.10965 -2.6361,-12.06563 -0.3692,-2.71146 -0.3879,-3.84638 -0.1358,-8.40749 0.2903,-5.25291 0.5983,-7.9132 1.202,-10.38547 0.7571,-3.10018 1.5705,-5.61319 2.4848,-7.67613 4.8386,-10.9196 4.0421,-22.6502 -2.0981,-30.87028 -1.555,-2.08191 -4.8961,-5.41929 -7.1958,-7.18827 -5.6762,-4.3663 -12.6262,-7.36754 -19.7881,-8.54519 -4.6395,-0.76297 -11.8757,-0.59579 -15.9417,0.36845 -4.7571,1.12809 -4.9185,1.1951 -16.3927,6.75831 -21.4717,10.40997 -46.4332,14.40369 -71.8175,11.49085 -3.3406,-0.38334 -11.4974,-1.63946 -11.653,-1.79453 -0.04,-0.0401 2.6529,-0.1368 5.9849,-0.21497 12.8981,-0.30267 21.6912,-2.28758 32.9294,-7.43323 6.1976,-2.8376 12.1858,-6.47484 17.3624,-10.54504 2.5939,-2.03964 11.2329,-10.48741 10.9816,-10.73868 -0.072,-0.0727 -0.8748,0.47286 -1.7828,1.2121 -2.9626,2.41187 -8.5308,5.93925 -12.6786,8.03191 -17.2713,8.71376 -34.7995,10.78323 -53.2441,6.28616 -5.728,-1.39659 -12.2432,-3.81773 -17.0436,-6.33344 -2.631,-1.37875 -2.8136,-1.62049 -0.5199,-0.68711 8.0192,3.26364 18.2261,4.18016 27.0612,2.42929 7.6563,-1.51733 15.8543,-5.89751 21.7777,-11.63569 1.6229,-1.57225 2.9018,-2.90707 2.8428,-2.96648 -0.059,-0.0594 -1.1447,0.66313 -2.4115,1.60598 -4.2753,3.18217 -10.5349,5.90941 -16.5714,7.21976 -3.8088,0.82686 -10.7662,0.82386 -14.9413,-0.007 -6.7256,-1.33793 -12.8808,-4.10564 -17.6276,-7.92619 -1.9065,-1.53447 -5.1616,-4.96533 -6.9249,-7.29854 -5.1229,-6.77887 -8.552,-15.67303 -9.1962,-23.85279 -0.084,-1.07316 -0.2113,-2.49138 -0.282,-3.15146 -0.07,-0.66007 -0.01,-2.58637 0.1412,-4.28022 0.6636,-7.56952 2.6644,-13.79102 6.6892,-20.80089 2.0631,-3.5933 2.551,-5.3484 2.5293,-9.1073 -0.022,-3.9308 -0.61,-5.7144 -2.8058,-8.5097 -3.4716,-4.4198 -10.672,-3.8148 -15.7654,1.3245 -2.3505,2.3715 -3.499,4.2722 -5.2057,8.6163 -3.0478,7.7569 -4.2829,14.59261 -4.2543,23.54888 0.028,9.05792 1.6722,16.70695 5.3916,25.09588 0.6382,1.43894 1.1137,2.61632 1.0566,2.61632 -0.2034,0 -2.1853,-3.57213 -3.9701,-7.15624 -4.1207,-8.2749 -6.8724,-17.15289 -8.4285,-27.19127 -0.7972,-5.14417 -0.8771,-18.18947 -0.1403,-22.89837 2.0135,-12.8654 5.664,-23.1931 11.8188,-33.4368 2.6446,-4.4012 3.6815,-6.8976 4.486,-10.7986 l 0.3181,-1.5425 h 131.3892 l 0.1859,1.3468 c 2.2758,16.4896 -0.7694,33.9488 -8.4755,48.5945 -4.3562,8.2787 -7.993,13.3302 -14.2302,19.76461 -1.7281,1.7828 -2.908,3.06186 -2.6219,2.84247 16.4179,-12.58308 27.7867,-30.91408 31.7155,-51.13758 1.1282,-5.8079 1.4988,-9.3815 1.6486,-15.9001 l 0.1269,-5.5107 z m -193.9728,0 0.071,3.7543 c 0.1817,9.5478 -1.3527,19.274 -4.4748,28.3627 -1.517,4.4155 -2.6513,7.0375 -4.8866,11.2947 -3.5739,6.8059 -6.943,11.852 -11.2653,16.8728 h -5e-4 c -1.3859,1.6101 -2.5771,2.9274 -2.6478,2.9274 -0.07,0 0.3888,-0.6733 1.0215,-1.4962 5.3437,-6.9503 10.9267,-18.2055 13.5445,-27.3051 0.9259,-3.2181 2.1193,-9.419 2.5449,-13.2224 0.6176,-5.521 0.3937,-15.6139 -0.4666,-21.0118 -0.012,-0.076 -0.014,-0.1119 -0.024,-0.1764 h 1.6481 c 0.818,4.0451 0.9686,14.7637 0.2699,20.4076 -0.9177,7.4144 -2.7426,14.9387 -4.9695,20.4914 -0.617,1.5385 -1.0696,2.7973 -1.0056,2.7973 0.1635,0 2.25,-4.476 3.1641,-6.7868 4.0293,-10.1862 6.302,-23.0224 5.9761,-33.7539 l -0.095,-3.1556 z m -183.8386,0 c -0.6468,1.6629 -2.0358,5.9438 -2.8939,8.9584 -4.2091,14.7879 -5.4495,33.5782 -3.2113,48.659 1.1456,7.72091 3.4192,16.5234 6.1371,23.76283 3.2014,8.527 7.6696,17.35825 12.2349,24.18058 0.9817,1.46693 1.733,2.66714 1.67,2.66714 -0.5313,0 -8.1754,-10.00717 -11.2007,-14.66367 -9.7426,-14.99607 -15.3435,-32.92548 -16.5531,-52.99048 -0.7263,-12.0485 1.1602,-27.0506 4.8911,-38.9012 l 0.5265,-1.6726 z m -10.6096,0 c -0.1151,0.413 -0.2519,0.8973 -0.5597,1.8047 -1.9286,5.6866 -3.699,14.1112 -4.6207,21.9856 -0.6366,5.4437 -0.6426,18.4058 -0.011,24.0693 2.7187,24.36588 11.6129,44.47599 27.7743,62.7956 17.5668,19.91281 42.5691,35.32563 67.5373,41.63437 30.7803,7.77711 60.3198,5.95186 87.6617,-5.41711 5.214,-2.16803 8.8646,-3.40293 11.9275,-4.03526 15.5596,-3.21237 31.0469,2.18534 39.2935,13.69498 2.5178,3.51392 3.8789,8.07179 3.8888,12.97486 0.01,6.06585 -1.8036,11.66319 -5.6158,17.36686 -5.6588,8.46692 -13.4495,13.99821 -25.5541,18.14396 -14.7337,5.04591 -31.9054,8.47176 -48.1392,9.60382 v -5e-4 c -4.5136,0.31477 -20.9515,0.33163 -25.3704,0.026 -27.3884,-1.89514 -52.4123,-8.79659 -75.8507,-20.91934 -33.2228,-17.1834 -59.977,-42.88666 -76.943,-73.92053 -10.508,-19.22212 -16.0555,-38.54491 -17.8897,-62.31991 -0.3515,-4.5552 -0.1357,-18.6888 0.3612,-23.679 1.1136,-11.1795 3.4827,-23.0096 6.305,-31.4852 l 0.7735,-2.3231 h 4.6219 c -0.1076,0.4545 -0.3327,1.2728 -0.739,2.5366 -4.9007,15.2389 -7.2578,31.9152 -6.8106,48.1853 0.092,3.3631 0.2308,6.8175 0.3064,7.6761 1.7621,19.90478 6.0679,35.86828 14.0355,52.0417 16.7187,33.93535 45.6819,62.14679 81.5733,79.45658 13.6994,6.60687 29.2856,11.75785 44.894,14.83746 29.2769,5.77621 58.6942,4.60184 86.2642,-3.44421 5.444,-1.58877 6.6554,-2.0312 10.1349,-3.70339 13.2325,-6.35925 22.2424,-18.34013 21.5176,-28.61174 -0.2629,-3.72567 -1.6752,-6.72436 -4.5272,-9.61501 -4.8965,-4.9628 -11.9751,-7.40753 -21.4657,-7.41441 -6.3226,-0.005 -11.5886,1.0534 -21.8342,4.38594 -10.1381,3.29769 -18.0545,5.11189 -27.2934,6.25465 -19.3654,2.39543 -39.7102,0.69048 -59.1853,-4.95971 -8.28,-2.40228 -14.1856,-4.6692 -21.8879,-8.4019 -19.73,-9.56155 -37.3701,-23.64415 -50.212,-40.08531 -3.3231,-4.25445 -8.8926,-12.73682 -11.3024,-17.21339 -11.0751,-20.57367 -15.5771,-45.82196 -12.4854,-70.02306 0.8575,-6.7134 2.5524,-14.6127 4.3407,-20.2312 l 0.5317,-1.671 z m -37.4126,0 c -0.088,0.3981 -0.2369,0.9747 -0.5265,1.822 -1.7042,4.9858 -3.8967,13.7515 -4.8602,19.4313 -0.3215,1.8962 -0.6608,3.4477 -0.7532,3.4477 -0.3282,0 -2.0832,-5.7808 -2.4328,-8.0131 -0.2152,-1.3723 -0.3231,-3.701 -0.2739,-5.908 0.084,-3.836 0.6061,-6.3954 2.0201,-9.9154 l 0.347,-0.8645 z m -10.4811,0 c -0.1301,0.4419 -0.3095,1.0341 -0.6881,2.1524 -1.4695,4.341 -1.7912,6.3101 -1.7696,10.8393 0.021,4.2579 0.5701,7.998 1.6268,11.069 0.2842,0.8263 0.5169,1.6206 0.5169,1.7655 0,0.145 -0.951,-1.1321 -2.1137,-2.8379 -4.6801,-6.8671 -10.5769,-14.3109 -15.8539,-20.0147 -0.6621,-0.7155 -1.7056,-1.8572 -2.3196,-2.537 l -0.3943,-0.4366 z m -112.4735,0 c 4.0643,0.44535 8.1049,1.08546 12.1078,1.9181 4.3654,0.92776 8.6791,2.08351 12.9236,3.4625 4.2444,1.37919 8.4136,2.97971 12.4905,4.795 4.0769,1.81508 8.056,3.84242 11.9208,6.0737 3.8649,2.23141 7.6104,4.66371 11.2209,7.2869 3.6105,2.62329 7.0812,5.43387 10.3977,8.4202 0.7249,0.70786 1.4413,1.42431 2.1492,2.1492 -1.0245,-0.45418 -2.0564,-0.89297 -3.0951,-1.3162 -3.1213,-1.16453 -6.2968,-2.18953 -9.5163,-3.0717 -3.2194,-0.88231 -6.4795,-1.62086 -9.7697,-2.2133 -3.2903,-0.59243 -6.6072,-1.03811 -9.9402,-1.3356 -3.3329,-0.29739 -6.6784,-0.44628 -10.0256,-0.4462 -1.1156,-2.1e-4 -2.2311,0.0161 -3.3461,0.049 -1.1149,0.0331 -2.2293,0.0827 -3.3426,0.1489 -1.1136,0.0662 -2.226,0.14884 -3.3369,0.248 -1.1107,0.0991 -2.2197,0.21463 -3.3267,0.3466 -1.1073,0.13217 -2.2124,0.28075 -3.3149,0.4457 -1.1023,0.16478 -2.2018,0.3459 -3.2983,0.5433 -1.0967,0.19737 -2.1901,0.41099 -3.28,0.6408 -1.0895,0.22988 -2.1753,0.47591 -3.257,0.738 -1.082,0.26216 -2.1597,0.54036 -3.2328,0.8345 -1.073,0.29397 -2.1413,0.60384 -3.2044,0.9295 -1.063,0.32583 -2.1207,0.6674 -3.1728,1.0246 -1.0521,0.35699 -2.0985,0.72957 -3.1387,1.1176 -1.0403,0.38814 -2.0743,0.79169 -3.1017,1.2105 -1.0273,0.41887 -2.0479,0.85296 -3.0614,1.3021 -1.0133,0.44905 -2.0194,0.91311 -3.0179,1.392 -0.9987,0.47894 -1.9897,0.97266 -2.9726,1.481 -0.9829,0.50828 -1.9577,1.03111 -2.9239,1.5683 -0.966,0.53737 -1.9234,1.08903 -2.8718,1.6548 -0.9484,0.56557 -1.8878,1.14517 -2.8177,1.7386 -0.93,0.59348 -1.8505,1.20072 -2.7611,1.8215 -0.9105,0.62084 -1.8109,1.25515 -2.7011,1.9027 -0.8903,0.64761 -1.7702,1.30839 -2.6393,1.9821 -0.8691,0.6735 -1.7274,1.35985 -2.5746,2.0588 -0.8472,0.69906 -1.6831,1.41064 -2.5075,2.1345 -0.8244,0.72397 -1.6372,1.46012 -2.438,2.2082 -0.8009,0.74789 -1.5897,1.50761 -2.3663,2.2789 -0.7766,0.77145 -1.5409,1.55438 -2.2925,2.3485 -0.7515,0.794 -1.4902,1.59909 -2.2159,2.415 -0.7258,0.8161 -1.4386,1.64291 -2.138,2.48015 -0.6995,0.83698 -1.3855,1.68428 -2.0579,2.5416 -0.6722,0.85755 -1.3306,1.72501 -1.975,2.60209 -0.6446,0.87693 -1.2751,1.76337 -1.8914,2.65901 -0.6162,0.89565 -1.218,1.80039 -1.8053,2.71389 -0.5873,0.91353 -1.16,1.83571 -1.7178,2.76623 -0.5578,0.93058 -1.1006,1.86937 -1.6284,2.81605 -0.5276,0.94661 -1.0401,1.90098 -1.5372,2.86279 -0.4973,0.9618 -0.9792,1.93092 -1.4455,2.90702 -0.4663,0.97616 -0.917,1.95917 -1.3519,2.9487 -0.4348,0.9895 -0.8537,1.98539 -1.2567,2.98731 -0.403,1.002 -0.79,2.00991 -1.1608,3.02339 -0.3707,1.01333 -0.7251,2.03209 -1.0632,3.05593 -0.3383,1.02397 -0.6602,2.0529 -0.9656,3.08642 -0.3052,1.03344 -0.5939,2.07134 -0.8659,3.11334 -0.2722,1.04206 -0.5278,2.0881 -0.7666,3.13775 -0.2385,1.04952 -0.4602,2.10251 -0.6651,3.1586 -0.205,1.05627 -0.3931,2.11553 -0.5642,3.17738 -0.1712,1.06169 -0.3254,2.12586 -0.4625,3.19213 -0.085,0.69126 -0.1626,1.38332 -0.2332,2.07608 -0.013,0.11551 -0.026,0.23102 -0.038,0.3466 -0.057,0.53892 -0.107,1.079 -0.155,1.6192 -0.04,0.45275 -0.075,0.90626 -0.1093,1.35997 -0.095,1.30773 -0.1691,2.61844 -0.2064,3.93516 -0.049,1.72566 -0.051,3.40412 -0.01,5.04509 0.028,1.07305 0.082,2.12589 0.152,3.16824 0.6883,10.35508 3.4099,19.30655 8.6844,28.97563 8.0654,14.7852 18.5226,26.37649 31.7175,35.1561 9.4329,6.27636 19.2056,10.06026 29.187,11.30179 3.7613,0.46773 11.5336,0.19916 15.0134,-0.5189 11.2028,-2.31178 21.0032,-8.57387 27.3976,-17.50562 1.8583,-2.59581 4.576,-8.04644 5.6169,-11.2657 2.7887,-8.62547 3.1498,-18.90216 0.9666,-27.50842 -1.9976,-7.87467 -8.3827,-20.43508 -13.4602,-26.47873 l -0.5463,-0.65053 0.472,0.78062 c 4.7999,7.93706 6.8704,12.50219 9.2197,20.32625 1.917,6.3838 2.1933,8.1693 2.1707,14.02126 -0.023,5.84744 -0.5369,9.23146 -2.1468,14.1341 -4.0703,12.39545 -11.8692,20.37045 -23.7278,24.26444 -4.1749,1.37094 -7.2109,1.86889 -11.4263,1.87381 -4.0335,0.005 -6.467,-0.31194 -10.6264,-1.38338 -15.1358,-3.89887 -30.871,-16.74169 -40.869,-33.35598 -5.0569,-8.4033 -8.2892,-16.70591 -9.5499,-24.52821 -0.4998,-3.10057 -0.691,-11.7673 -0.3304,-14.96197 0.7796,-6.90426 3.1243,-15.00667 6.2872,-21.72741 7.7083,-16.37903 21.2001,-30.29955 37.0258,-38.20236 10.2496,-5.11831 23.4409,-9.01031 34.5854,-10.20401 0.8587,-0.092 1.8545,-0.2216 2.2124,-0.2877 1.7158,-0.317 12.6448,-0.4021 15.8725,-0.1235 8.4395,0.7286 15.9116,2.6543 21.8734,5.6367 5.7201,2.86199 14.4864,10.24681 20.0594,16.89983 2.1687,2.58905 7.0018,9.04884 6.8691,9.18149 -0.046,0.0463 -1.8248,-0.72838 -3.9519,-1.72133 -17.4795,-8.15968 -35.7559,-12.72228 -55.5189,-13.85966 -5.1235,-0.29486 -16.6932,-0.12455 -17.3725,0.25563 -0.203,0.11363 0.8221,0.43792 2.4629,0.7791 15.7383,3.27252 31.294,8.60901 45.2238,15.51442 13.4879,6.6867 23.978,13.67343 34.7303,23.13314 3.3703,2.96514 9.6839,9.20929 12.2653,12.13019 1.8715,2.11743 1.057,0.24572 8.992,20.48023 0.1212,0.30894 0.1573,0.40069 0.2825,0.72014 4.4746,11.40631 9.8452,22.36255 15.4651,31.66565 2.5264,4.18217 5.1032,8.03133 7.6717,11.43543 l 2.0887,2.76828 -3.1473,0.58293 c -6.4812,1.19965 -10.9455,3.43999 -15.0104,7.53283 -5.263,5.29984 -6.873,12.16913 -3.994,17.04872 1.6905,2.86556 4.9986,5.54629 8.5339,6.91536 2.8739,1.11287 5.4638,1.54571 9.1982,1.53685 3.6194,-0.009 5.6513,-0.34078 11.525,-1.88245 15.4163,-4.04616 30.1328,-2.67192 44.7559,4.17859 6.8075,3.18916 13.1222,7.69964 19.0064,13.57708 9.8156,9.8044 13.9257,19.6059 12.3883,29.54077 -0.4054,2.62066 -1.3471,6.19528 -2.1076,8.00141 l -0.4107,0.97579 -185.8761,5e-5 h -149.5197 v -77.48266 -63.068 -88.57351 -51.1015 z m -42.9258,57.4873 c 0.1432,0 0.2602,0.1171 0.2602,0.2602 0,0.1431 -0.117,0.2602 -0.2602,0.2602 -0.143,0 -0.2603,-0.1171 -0.2603,-0.2602 0,-0.1431 0.1173,-0.2602 0.2603,-0.2602 z m -1.301,0.8142 c 0.1178,0 0.2358,0.018 0.3252,0.054 0.1789,0.072 0.032,0.1311 -0.3252,0.1311 -0.3576,0 -0.5037,-0.059 -0.3248,-0.1311 0.089,-0.036 0.2069,-0.054 0.3248,-0.054 z m 0.2053,1.5465 c 0.1011,0 0.2523,0.076 0.3847,0.2089 0.2551,0.2569 0.225,0.287 -0.1458,0.1458 -0.2569,-0.098 -0.4013,-0.2431 -0.3208,-0.3232 0.02,-0.02 0.048,-0.03 0.081,-0.031 z m -3.0677,3.1037 c 0.1431,0 0.2608,0.1171 0.2608,0.2602 -1e-4,0.1431 -0.1177,0.2602 -0.2608,0.2602 -0.1423,0 -0.2601,-0.1171 -0.2601,-0.2602 0,-0.1431 0.1178,-0.2602 0.2601,-0.2602 z m -2.7317,0.528 c 0.1431,0 0.4354,0.1139 0.6501,0.2526 0.2147,0.1387 0.2732,0.2521 0.1301,0.2521 -0.1431,0 -0.4354,-0.1134 -0.6501,-0.2521 -0.2146,-0.1387 -0.2732,-0.2526 -0.1301,-0.2526 z m -1.4311,1.29344 c 0.1431,0 0.2597,0.11709 0.2597,0.26021 0,0.14311 -0.1166,0.26021 -0.2597,0.26021 -0.1432,0 -0.2601,-0.1171 -0.2601,-0.26021 0,-0.14312 0.1169,-0.26021 0.2601,-0.26021 z m 0.08,0.78469 c 0.1861,0.002 0.1541,0.10458 -0.08,0.25614 -0.4998,0.32306 -0.5899,0.32306 -0.3903,0 0.088,-0.14311 0.3002,-0.2581 0.4706,-0.25614 z m 440.2315,131.92162 c 0.05,2e-4 0.116,1.37605 0.1465,3.05743 0.075,4.13875 0.7008,8.00445 2.1491,13.2869 1.707,6.22378 4.261,12.6168 5.7557,14.407 0.559,0.6697 1.017,1.33034 1.017,1.46825 0,0.1379 0.175,0.31807 0.3897,0.40047 0.2146,0.0824 0.3903,0.33075 0.3903,0.55194 0,0.31514 -0.2393,0.2496 -1.1059,-0.30341 -0.6081,-0.38817 -1.3108,-0.87654 -1.5613,-1.08505 -0.2503,-0.20865 -0.4554,-0.304 -0.4554,-0.21243 0,0.0915 -0.4975,-0.12482 -1.1058,-0.48079 -1.5221,-0.89082 -6.1349,-3.10735 -8.6686,-4.16536 -1.154,-0.48195 -3.2617,-1.41813 -4.6838,-2.08014 -6.9274,-3.22512 -18.7182,-7.52993 -25.5177,-9.31669 -2.1545,-0.56613 -3.1631,-0.93467 -2.8283,-1.0332 0.2862,-0.0843 2.0426,-0.58409 3.9032,-1.11098 4.0295,-1.14107 12.1489,-3.88629 15.835,-5.35358 6.6556,-2.64926 10.4831,-4.46326 13.9772,-6.62464 1.2501,-0.7733 2.3129,-1.40592 2.3631,-1.40572 z m -131.3768,16.56489 3.8615,0.74404 3.8615,0.74351 -6.0423,1.99781 c -6.5074,2.15157 -8.1027,2.73162 -14.1158,5.131 -8.5446,3.40964 -17.2032,7.34703 -18.6557,8.4837 l -0.8371,0.6551 -1.0383,-1.57904 -1.0376,-1.57954 0.6397,-0.51839 c 2.1564,-1.74706 20.0137,-9.42168 30.1426,-12.95451 z m 56.3702,19.93492 c 14.7564,0.0797 31.0789,3.47754 45.4424,9.55403 6.128,2.59239 15.2142,7.46383 15.2142,8.15793 3e-4,0.16606 0.3266,0.31311 0.7257,0.32678 0.4733,0.0162 1.9426,0.8896 4.2278,2.51264 1.9263,1.36813 3.7499,2.70353 4.0526,2.9675 0.3026,0.26398 0.7125,0.51736 0.9108,0.56309 0.1982,0.0457 0.7117,0.40786 1.1409,0.80453 0.4294,0.39667 1.5049,1.26715 2.3897,1.93478 2.7722,2.09213 7.8727,6.82895 11.5413,10.71886 1.9664,2.08579 7.0158,8.23261 7.0158,8.54164 0,0.0906 -1.0888,0.16467 -2.4201,0.16467 h -2.4212 l -1.9373,-2.40692 c -1.9333,-2.40134 -6.4626,-7.0595 -12.8666,-13.23252 -3.2901,-3.1714 -6.2106,-5.33994 -9.6283,-7.15065 -0.8586,-0.45497 -3.142,-1.78937 -5.074,-2.96495 -12.9608,-7.886 -28.4176,-13.38354 -43.8452,-15.59421 -16.5319,-2.36888 -34.0392,-0.69029 -48.3047,4.6309 -11.0286,4.11373 -22.3768,10.82694 -32.0991,18.98911 -3.2369,2.71734 -9.8737,9.26518 -12.5626,12.39498 -3.4337,3.99642 -3.3116,3.89498 -2.6561,2.21583 0.3066,-0.78495 0.9038,-2.77555 1.3275,-4.42355 l 0.7705,-2.99645 2.0064,-2.04306 c 5.8643,-5.97162 12.4188,-11.40498 19.1806,-15.90066 16.6658,-11.08032 32.2621,-16.39304 51.651,-17.59354 2.0338,-0.12593 4.11,-0.18214 6.218,-0.17076 z m -5.2971,19.17105 c 5.6323,-0.0432 12.3255,0.5188 18.3345,1.58667 14.8632,2.64128 29.7449,9.1108 42.0868,18.2959 2.5306,1.88336 7.9395,6.41017 8.2417,6.89756 0.092,0.15523 -2.608,0.24587 -7.2209,0.24293 l -7.3752,-0.005 0.6403,-1.58513 c 1.3673,-3.38497 0.09,-7.05308 -2.9959,-8.61025 -2.0547,-1.03666 -6.4527,-0.3273 -9.5676,1.54344 -2.0537,1.2333 -2.8596,2.03104 -3.6446,3.60634 -0.7665,1.53817 -0.7835,1.93135 -0.1601,3.73643 l 0.4721,1.3661 -49.5945,-0.0127 -49.5947,-0.0128 2.3415,-2.22601 c 14.5622,-13.84254 33.6436,-22.72026 52.8223,-24.57546 1.5768,-0.1525 3.3368,-0.23412 5.2143,-0.24852 z m 113.831,3.04932 c 0,-0.0693 1.0246,0.49049 2.2767,1.24413 8.6619,5.21281 18.5049,9.35324 40.2679,16.93946 6.1291,2.13651 15.2323,5.50595 15.4416,5.71544 0.069,0.0699 -9.8452,0.12705 -22.0337,0.12705 -17.5538,0 -22.1646,-0.0676 -22.1646,-0.32525 0,-0.44911 -3.7898,-8.16344 -5.3307,-10.8637 -1.6075,-2.8171 -5.8262,-9.29194 -7.3147,-11.22607 -0.6282,-0.81644 -1.1425,-1.54162 -1.1425,-1.61106 z m -97.7255,2.60005 c -2.9906,0.10219 -5.9869,3.06485 -5.1336,6.17538 3.0133,9.63553 15.4352,-5.99569 5.1336,-6.17538 z m 16.0587,3.59515 c -0.9593,0.0109 -2.1433,0.23265 -3.583,0.71761 -2.9189,1.01682 -5.9281,4.148 -4.9064,7.46015 3.4646,15.43201 18.6921,-8.29532 8.4894,-8.17776 z"
           clip-path="none" /></g><use
         x="0"
         y="0"
         xlink:href="#g65680"
         id="use65768"
         transform="matrix(-1,0,0,1,1016,4.0517579e-7)"
         width="100%"
         height="100%"
         style="stroke-width:0.983718" /><use
         x="0"
         y="0"
         xlink:href="#g65680"
         id="use66894"
         transform="rotate(180,508.00002,285.75)"
         width="100%"
         height="100%"
         style="stroke-width:0.983718" /></g><path
       id="path6822"
       style="color:#000000;clip-rule:evenodd;opacity:0.5;mix-blend-mode:overlay;fill:#000000;fill-rule:evenodd;stroke-width:20;-inkscape-stroke:none;filter:url(#filter851)"
       d="m 1711.0195,1708.7441 c -10.4071,0.081 -19.7021,6.7628 -23.1582,16.5215 -1.1868,3.3401 -1.4531,6.537 -1.4531,9.1973 v 197.0976 0.1407 c 0.3727,13.2712 11.3915,24.3114 24.7578,24.3437 h 0.01 0.01 c 17.0968,0.023 52.1817,-0.059 52.1817,-0.059 l 8.7265,-0.022 v 0.088 h 9.9942 c 0,0 1.5189,0.012 1.6015,0.016 l 0.1856,0.01 h 344.9336 0.051 c 10.3011,-0.1021 19.5509,-6.6595 23.0625,-16.3594 0,0 0.01,0 0.01,-0.01 1.2161,-3.3438 1.4707,-6.5168 1.4707,-9.1309 v -197.4297 -0.096 c -0.2158,-10.9401 -7.6237,-20.5065 -18.1816,-23.4218 l -1.2109,-0.3321 -0.3477,-0.01 c 0.4792,0.096 0.9548,0.1826 1.4551,0.3164 l -2.3926,-0.3398 0.9375,0.023 c -2.3669,-0.4731 -4.4802,-0.5469 -6.1719,-0.5469 h -416.4277 z m 208.9727,36.5918 v 0 c 51.7458,0.01 103.4735,0.026 142.3164,0.059 19.4215,0.015 35.6232,0.037 46.9922,0.059 3.4976,0.01 5.6,0.016 8.1347,0.023 0.019,5.3397 0.041,12.3819 0.053,21.0606 0.023,18.2882 0.033,42.5558 0.021,66.8047 -0.011,24.2488 -0.039,48.4826 -0.08,66.7109 -0.019,8.5656 -0.041,15.4663 -0.066,20.75 h -344.1231 v -0.059 h -51.2441 c -0.023,-5.3513 -0.045,-12.4103 -0.059,-21.0977 -0.026,-18.3047 -0.039,-42.5725 -0.031,-66.8203 0.01,-24.2478 0.035,-48.4758 0.074,-66.6875 0.019,-8.5602 0.034,-15.4551 0.059,-20.7285 2.5877,-0.01 4.7803,-0.016 8.3711,-0.023 11.4308,-0.019 27.6856,-0.026 47.1484,-0.037 38.9255,-0.019 90.6877,-0.023 142.4336,-0.016 z m -22.7734,21.2383 -2.7969,5.3965 c -0.1191,0.2298 -0.4848,0.7483 -0.9453,2.2227 l 0.1777,-0.5176 c -13.0838,35.0862 -26.1528,70.1811 -39.2285,105.2578 -11.8271,-17.2165 -23.6156,-34.362 -35.4238,-51.5547 1.1796,-1.3754 2.3682,-2.7402 3.5507,-4.1406 l 0.072,-0.088 c 2.8232,-3.2667 5.6303,-6.535 8.4375,-9.8106 2.8432,-3.3145 5.6433,-6.6066 8.4531,-9.8769 l 0.01,-0.01 0.01,-0.016 c 2.8175,-3.2937 5.6597,-6.5963 8.4805,-9.9219 l -0.051,0.053 c 2.8301,-3.2887 5.6485,-6.5842 8.6504,-10.1348 l 13.9082,-16.455 h -23.2011 c -5.9974,0 -11.9214,0.037 -17.7676,-0.023 h -0.045 -0.053 c -3.0279,0 -8.1637,2.378 -10.1269,4.6875 l -0.016,0.016 -0.01,0.016 c -9.0473,10.7138 -18.1213,21.4215 -27.1875,32.1328 v -16.0117 c 0,-3.4544 0.057,-7.0916 -0.01,-10.8867 l -0.1621,-9.834 h -38.2305 v 131.4199 l 8.2676,1.4473 c 1.74,0.3053 1.8019,0.2005 2.5098,0.2285 0.7078,0.026 1.5143,0.044 2.4219,0.059 1.8152,0.03 4.0213,0.039 6.2226,0.031 2.2013,-0.01 4.3795,-0.034 6.1426,-0.074 0.8815,-0.019 1.6537,-0.041 2.3398,-0.074 0.3432,-0.015 0.6574,-0.034 1.0332,-0.066 0.3757,-0.034 0.4077,0.099 2.0879,-0.3535 l 7.4043,-1.9922 v -17.709 l -0.059,-0.01 v -24.9063 c 2.985,4.3019 5.9666,8.6063 8.9473,12.9024 6.2335,9.0194 12.4734,17.9784 18.6758,26.9297 0.3065,0.4611 1.0268,1.7311 2.8789,3.123 1.8521,1.3919 4.7824,2.2656 6.8867,2.2656 h 0.016 0.016 c 6.5572,-0.023 13.1223,-0.023 19.6953,-0.023 2.4146,0 3.0381,-0.408 2.9961,-0.3984 l 0.6132,-0.1407 0.096,0.4805 h 26.168 l 7.7363,1.9043 2.9747,-8.6367 c -0.05,0.1447 0.1345,-0.2378 0.5019,-1.3731 2.7334,-7.765 5.4747,-15.5216 8.2168,-23.2968 h 29.2773 c 2.9866,8.2745 5.9707,16.5321 8.9317,24.7656 l 2.3769,6.6152 h 32.1485 l 0.016,0.037 h 83.5391 v -0.037 h 28.2363 l 2.2148,-6.9687 c -0.1039,0.3269 0.584,-0.7662 0.584,-3.4473 v -121.4551 l -6.0761,-0.3398 -1.6172,-0.8711 h -30.7442 v 97.375 h -34.5254 c -2.0782,0 -4.0655,0 -6.0468,0 v -82.4043 l -0.059,-0.066 c 0.015,-1.8111 0.08,-3.4584 -0.059,-5.5879 l -0.6133,-9.3516 h -35.6016 l -1.7129,7.8828 c -0.3639,1.6793 -0.2086,1.4222 -0.2226,1.6465 -0.015,0.2241 -0.014,0.3913 -0.022,0.5684 -0.011,0.3541 -0.024,0.7353 -0.031,1.2109 -0.019,0.9513 -0.037,2.2372 -0.051,3.8379 -0.026,3.2015 -0.043,7.6602 -0.059,12.9707 -0.03,10.621 -0.047,24.6384 -0.039,38.6445 0.01,12.6681 0.038,24.7553 0.074,34.8711 -11.9142,-31.9253 -23.8064,-63.7982 -35.6621,-95.625 l -2.4219,-6.5097 z m 185.1835,3.1973 c -0.019,-0.019 0.1233,0.1329 0.1172,0.125 -0.026,-0.023 -0.034,-0.029 -0.059,-0.051 -0.01,-0.01 -0.053,-0.07 -0.059,-0.074 z m 0.6192,0.6484 c 0.1701,0.1705 0.057,0.01 0.3691,0.3848 0.072,0.087 0.1518,0.2557 0.252,0.4062 -0.248,-0.3303 -0.385,-0.5072 -0.6211,-0.791 z m 1.6015,2.377 c 0.044,0.078 0.2305,0.3695 0.2305,0.3691 -1e-4,-2e-4 0.038,0.1937 0.043,0.2149 -0.1089,-0.2317 -0.1393,-0.2983 -0.2735,-0.584 z m 0.6192,1.3222 v 0 0.018 c 0.4267,1.2918 0.4457,2.2505 0.459,2.836 l 0.049,0.2988 c 0,-0.053 -0.039,-0.08 -0.039,-0.1328 0,-0.039 -0.01,-0.1222 -0.01,-0.166 l -0.459,-2.836 c 0,-0.01 0,-0.011 0,-0.018 z m -171.8047,51.3047 c 0.5919,1.703 1.1546,3.582 1.7266,5.2696 0.2487,0.7349 0.5039,1.4391 0.7539,2.1699 h -5.041 c 0.8585,-2.4736 1.704,-4.9586 2.5605,-7.4395 z m -42.2461,65.8086 c 0.027,0.3825 -0.3463,0.795 -0.5254,1.4024 0.1743,-0.4676 0.3513,-0.9348 0.5254,-1.4024 z"
       transform="scale(0.26458333)" /><path
       d="m 564.23007,454.89 c -0.4397,-0.11764 -0.8784,-0.13925 -1.3327,-0.13925 h -110.17 c -1.6536,0.0129 -3.1052,1.0569 -3.6546,2.6116 -0.1796,0.50546 -0.2318,1.017 -0.2318,1.5472 v 52.112 c 0.061,2.1715 1.76,3.8649 3.9117,3.8701 4.51,0.006 13.798,-0.0162 13.798,-0.0162 l -0.016,-4.0329 h -13.547 c -0.072,-0.43324 -0.054,-51.433 0.016,-51.669 0.415,-0.0579 109.62,-0.037 109.86,0.0191 0.066,0.39336 0.047,51.399 -0.025,51.667 h -91.328 v 4.0334 c 0,0 0.3564,0 0.5196,0.006 h 91.203 c 1.6356,-0.0162 3.0848,-1.0422 3.6423,-2.5842 0.1795,-0.49119 0.2312,-0.99751 0.2312,-1.5153 v -52.211 c -0.034,-1.7248 -1.2084,-3.2399 -2.8689,-3.6984 z m -92.719,44.799 v -10.43 c 0,-0.23524 0.066,-0.40042 0.2582,-0.54956 0.8055,-0.63702 1.6002,-1.2921 2.3952,-1.9424 0.079,-0.0589 0.1564,-0.11119 0.2553,-0.18336 0.086,0.11083 0.1579,0.20153 0.2245,0.30119 1.3512,1.9494 2.7035,3.8968 4.0539,5.8431 1.657,2.3976 3.3168,4.784 4.9702,7.1703 0.092,0.13851 0.1761,0.24354 0.3797,0.24354 1.741,-0.006 3.4802,-0.006 5.2193,-0.006 0.058,0 0.1168,-0.0191 0.2085,-0.0399 -3.8504,-5.6075 -7.685,-11.176 -11.531,-16.779 0.7738,-0.89827 1.5224,-1.7628 2.2701,-2.6487 0.7497,-0.86737 1.4967,-1.7377 2.2452,-2.6111 0.7473,-0.87118 1.4893,-1.7438 2.2386,-2.6159 0.7477,-0.87408 1.4967,-1.7462 2.236,-2.6178 0.7444,-0.86505 1.4834,-1.7305 2.2725,-2.6638 h -0.4387 c -1.5756,0 -3.1504,0.01 -4.7263,-0.006 -0.2897,0 -0.4724,0.084 -0.6635,0.30881 -3.871,4.584 -7.7511,9.1689 -11.631,13.748 -0.052,0.0586 -0.1184,0.11119 -0.2302,0.21426 v -11.404 c 0,-0.94387 0.016,-1.8906 0,-2.8349 h -4.8682 v 29.902 c 0.3864,0.0678 4.615,0.054 4.8757,-0.0162 v -0.38047 z m 25.993,0.43276 c 0.039,-0.11322 0.084,-0.21046 0.1181,-0.31582 0.7867,-2.235 1.5742,-4.4662 2.363,-6.7031 0.1312,-0.35954 0.2617,-0.72106 0.3803,-1.0821 0.047,-0.1507 0.1238,-0.22954 0.2827,-0.21046 0.052,0.006 0.1113,0 0.1636,0 h 11.105 c 1.0039,2.7813 2.0008,5.5424 2.994,8.3041 h 5.1988 c -3.7502,-10.048 -7.4847,-20.056 -11.212,-30.062 h -5.3159 c -0.034,0.0656 -0.059,0.11334 -0.073,0.15816 -3.7011,9.9251 -7.3984,19.854 -11.098,29.777 -0.016,0.0162 -0.016,0.0469 -0.016,0.066 v 0.0318 c 0,0.0129 0.016,0.0191 0.019,0.034 h 5.0806 z m 4.4943,-12.882 c 1.0238,-2.9646 2.0622,-5.9161 3.0598,-8.8885 0.4003,-1.1946 0.702,-2.4269 1.0428,-3.6454 0.029,-0.0923 0.047,-0.18497 0.086,-0.32396 0.052,0.0786 0.092,0.12651 0.1057,0.17827 0.8132,3.0364 1.9248,5.9825 2.9343,8.961 0.4193,1.2393 0.8536,2.4711 1.2805,3.7112 0.033,0.11095 0.065,0.22192 0.104,0.35913 h -8.7228 c 0.039,-0.12923 0.072,-0.24037 0.1097,-0.35152 z m 26.322,-14.746 c 0,-0.77434 0.028,-1.5416 -0.022,-2.3086 h -4.8079 c -0.081,0.37387 -0.061,29.691 0.016,29.938 h 17.512 v -4.1655 h -8.4475 c -0.7102,0 -1.4259,0.006 -2.1329,0 -0.6969,-0.006 -1.3909,0.0255 -2.1137,-0.0163 v -23.443 z m 20.905,-2.1243 c 0,-0.0465 0,-0.085 -0.016,-0.13324 0,-0.0129 -0.016,-0.0162 -0.016,-0.0254 0,-0.006 -0.019,-0.0162 -0.019,-0.0162 h -4.8242 v 29.92 h 4.8499 c 0.016,-0.0503 0.029,-0.077 0.029,-0.11095 v -29.634 z"
       style="clip-rule:evenodd;fill:#ffffff;fill-rule:evenodd;stroke-width:0.47516"
       id="path37" /></g></svg>
